<svg width="14" height="14" viewBox="0 0 14 14" fill="none" xmlns="http://www.w3.org/2000/svg">
<path d="M6.482 0.335177C6.53321 0.233604 6.6082 0.148957 6.69918 0.0900194C6.79016 0.0310815 6.89382 0 6.99941 0C7.10499 0 7.20866 0.0310815 7.29964 0.0900194C7.39062 0.148957 7.46561 0.233604 7.51682 0.335177L13.9258 13.0335C13.9757 13.1325 14.0013 13.2442 14 13.3575C13.9986 13.4707 13.9705 13.5817 13.9182 13.6793C13.866 13.7769 13.7915 13.8578 13.7022 13.9141C13.6128 13.9703 13.5116 13.9999 13.4086 14L0.591362 14C0.488394 13.9999 0.387221 13.9703 0.297846 13.9141C0.208471 13.8578 0.133988 13.7769 0.0817595 13.6793C0.0295313 13.5817 0.00136623 13.4707 4.84658e-05 13.3575C-0.0012693 13.2442 0.0243059 13.1325 0.0742458 13.0335L6.482 0.335177Z" fill="#F8F2F2"/>
</svg>
